%YAML 1.1
%TAG !u! tag:unity3d.com,2011:
--- !u!114 &11400000
MonoBehaviour:
  m_ObjectHideFlags: 0
  m_CorrespondingSourceObject: {fileID: 0}
  m_PrefabInstance: {fileID: 0}
  m_PrefabAsset: {fileID: 0}
  m_GameObject: {fileID: 0}
  m_Enabled: 1
  m_EditorHideFlags: 0
  m_Script: {fileID: 11500000, guid: 91c8d786a75e1f9479f43a51c0d71ea7, type: 3}
  m_Name: Merchant
  m_EditorClassIdentifier: 
  cost: 10
  wage: 1
  wageCooldownInSeconds: 1
